^D:\CODE\ASM\SOLUTION1\SOLUTION1\PROJECT1\DEBUG\1.OBJ
D:\CODE\ASM\SOLUTION1\SOLUTION1\DEBUG\PROJECT1.EXE
D:\CODE\ASM\SOLUTION1\SOLUTION1\DEBUG\PROJECT1.ILK
D:\CODE\ASM\SOLUTION1\SOLUTION1\DEBUG\PROJECT1.PDB
